<?xml version="1.0" encoding="UTF-8" standalone="no"?>
<svg
   xmlns:dc="http://purl.org/dc/elements/1.1/"
   xmlns:cc="http://creativecommons.org/ns#"
   xmlns:rdf="http://www.w3.org/1999/02/22-rdf-syntax-ns#"
   xmlns:svg="http://www.w3.org/2000/svg"
   xmlns="http://www.w3.org/2000/svg"
   xmlns:sodipodi="http://sodipodi.sourceforge.net/DTD/sodipodi-0.dtd"
   xmlns:inkscape="http://www.inkscape.org/namespaces/inkscape"
   width="612"
   height="612"
   viewBox="0 0 161.92499 161.92499"
   version="1.1"
   id="svg8"
   inkscape:version="1.0.1 (3bc2e813f5, 2020-09-07, custom)"
   sodipodi:docname="logo_hayago.svg">
  <defs
     id="defs2">
    <pattern
       patternUnits="userSpaceOnUse"
       width="1625.293"
       height="1625.293"
       patternTransform="translate(-546.26392,-546.28227)"
       id="pattern1502">
      <g
         id="g1448"
         transform="matrix(3.7795276,0,0,3.7795276,546.26392,546.28227)">
        <rect
           style="fill:#000000;fill-opacity:1;stroke:none;stroke-width:0.537195;stroke-miterlimit:4;stroke-dasharray:none;stroke-dashoffset:0;stroke-opacity:1"
           id="rect1144"
           width="202.71594"
           height="202.71594"
           x="-202.71251"
           y="-1.6870711"
           transform="rotate(-45)" />
        <rect
           style="fill:#ffffff;fill-opacity:1;stroke:none;stroke-width:0.537194;stroke-miterlimit:4;stroke-dasharray:none;stroke-dashoffset:0;stroke-opacity:1"
           id="rect1144-0"
           width="202.71594"
           height="202.71594"
           x="0.0034332275"
           y="-1.6870711"
           transform="rotate(-45)"
           inkscape:export-xdpi="96"
           inkscape:export-ydpi="96" />
      </g>
    </pattern>
    <filter
       style="color-interpolation-filters:sRGB"
       inkscape:label="Invert"
       id="filter1007">
      <feColorMatrix
         type="hueRotate"
         values="180"
         result="color1"
         id="feColorMatrix1003" />
      <feColorMatrix
         values="-1 0 0 0 1 0 -1 0 0 1 0 0 -1 0 1 -0.21 -0.72 -0.07 2 0 "
         result="color2"
         id="feColorMatrix1005" />
    </filter>
  </defs>
  <sodipodi:namedview
     id="base"
     pagecolor="#ffffff"
     bordercolor="#666666"
     borderopacity="1.0"
     inkscape:pageopacity="0.0"
     inkscape:pageshadow="2"
     inkscape:zoom="2.8284271"
     inkscape:cx="532.2795"
     inkscape:cy="89.866746"
     inkscape:document-units="mm"
     inkscape:current-layer="layer1"
     inkscape:document-rotation="0"
     showgrid="false"
     showguides="true"
     inkscape:guide-bbox="true"
     units="px"
     objecttolerance="13.4"
     inkscape:snap-perpendicular="false"
     inkscape:snap-tangential="false"
     inkscape:window-width="1352"
     inkscape:window-height="737"
     inkscape:window-x="5"
     inkscape:window-y="22"
     inkscape:window-maximized="1" />
  <metadata
     id="metadata5">
    <rdf:RDF>
      <cc:Work
         rdf:about="">
        <dc:format>image/svg+xml</dc:format>
        <dc:type
           rdf:resource="http://purl.org/dc/dcmitype/StillImage" />
        <dc:title></dc:title>
      </cc:Work>
    </rdf:RDF>
  </metadata>
  <g
     inkscape:label="Layer 1"
     inkscape:groupmode="layer"
     id="layer1"
     style="display:inline">
    <g
       id="g1041"
       transform="matrix(1.1933585,0,0,1.1933585,0.13235033,0.13235033)">
      <path
         id="rect2467"
         style="display:inline;fill:#000000;fill-opacity:1;stroke:none;stroke-width:0.537194;stroke-miterlimit:4;stroke-dasharray:none;stroke-dashoffset:0;stroke-opacity:1"
         d="M -6.6666669e-7,-6.6666668e-7 V 135.46667 H 135.46667 v -0.005 L 0.00464933,-6.6666668e-7 Z" />
      <path
         style="fill:#ffffff;fill-opacity:1;stroke:none;stroke-width:0.264583px;stroke-linecap:butt;stroke-linejoin:miter;stroke-opacity:1"
         d="M 0.00464933,-6.6666667e-7 H 135.46661 V 135.45289 Z"
         id="path935" />
      <g
         id="g1463">
        <rect
           style="fill:none;fill-opacity:1;stroke:none;stroke-width:0.264999;stroke-miterlimit:4;stroke-dasharray:none;stroke-dashoffset:0;stroke-opacity:1"
           id="rect1007"
           width="8.2371988"
           height="11.417557"
           x="13.25708"
           y="26.919704"
           ry="4.1185994" />
        <g
           id="g955"
           style="fill:#000000;fill-opacity:1"
           transform="matrix(4.1926687,0,0,4.1926687,-353.97605,-573.39881)">
          <path
             style="fill:#000000;fill-opacity:1;stroke:#000000;stroke-width:0.2;stroke-linecap:butt;stroke-linejoin:miter;stroke-miterlimit:4;stroke-dasharray:none;stroke-opacity:1"
             d="m 103.50411,144.98214 v -0.99655 h 0.50209 v 0.99733 h 0.49537 v -0.99737 h 1.0032 v 0.99772 h 0.4946 v -0.9967 H 106.5 v 1.99881 h -2.99952 z"
             id="path833" />
          <path
             style="fill:#000000;fill-opacity:1;stroke:#000000;stroke-width:0.2;stroke-linecap:butt;stroke-linejoin:miter;stroke-miterlimit:4;stroke-dasharray:none;stroke-opacity:1"
             d="m 104.00401,145.98516 v 2.00405 h -0.50272 v 0.99696 h 0.49873 v 1.99646 h 1.99601 v -1.99849 h 0.5028 v -1.00349 h -0.50002 l -0.002,-1.99514 z"
             id="path835" />
          <path
             style="fill:#000000;fill-opacity:1;stroke:#000000;stroke-width:0.2;stroke-linecap:butt;stroke-linejoin:miter;stroke-miterlimit:4;stroke-dasharray:none;stroke-opacity:1"
             d="m 103.4922,151.01643 v 0.49293 h -0.43427 v 0.50165 h -0.48547 v 0.49953 h -0.49169 v 0.50391 h 5.83808 l -0.002,-0.53072 -0.47097,-0.0104 -0.0104,-0.44941 -0.44123,-0.01 -0.005,-0.51068 -0.57762,0.003 0.004,-0.49026 c -0.49909,5.1e-4 -1.00543,3.4e-4 -1.49925,1.8e-4 -0.49116,2e-5 -0.99481,-2.4e-4 -1.42418,2.7e-4 z"
             id="path837"
             sodipodi:nodetypes="cccccccccccccccccc" />
        </g>
        <g
           id="g960"
           transform="matrix(4.1926687,0,0,-4.1926687,-331.28094,744.90713)"
           style="fill:#ffffff;fill-opacity:1">
          <path
             style="fill:#ffffff;fill-opacity:1;stroke:#000000;stroke-width:0.2;stroke-linecap:butt;stroke-linejoin:miter;stroke-miterlimit:4;stroke-dasharray:none;stroke-opacity:1"
             d="m 89.256193,153.57849 v -0.99655 h 0.50209 v 0.99733 h 0.49537 v -0.99737 h 1.0032 v 0.99772 h 0.4946 v -0.9967 h 0.500631 v 1.99881 h -2.999521 z"
             id="path833-1" />
          <path
             style="fill:#ffffff;fill-opacity:1;stroke:#000000;stroke-width:0.2;stroke-linecap:butt;stroke-linejoin:miter;stroke-miterlimit:4;stroke-dasharray:none;stroke-opacity:1"
             d="m 89.756093,154.58151 v 2.00405 h -0.50272 v 0.99696 h 0.49873 v 1.99646 h 1.99601 v -1.99849 h 0.5028 V 156.577 h -0.50002 l -0.002,-1.99514 z"
             id="path835-2" />
          <path
             style="fill:#ffffff;fill-opacity:1;stroke:#000000;stroke-width:0.2;stroke-linecap:butt;stroke-linejoin:miter;stroke-miterlimit:4;stroke-dasharray:none;stroke-opacity:1"
             d="m 89.244283,159.61278 v 0.49293 h -0.43427 v 0.50165 h -0.48547 v 0.49953 h -0.49169 v 0.50391 h 5.83808 l -0.002,-0.53072 -0.47097,-0.0104 -0.0104,-0.44941 -0.44123,-0.01 -0.005,-0.51068 -0.577619,0.003 0.004,-0.49026 c -0.499091,5.1e-4 -1.005431,3.5e-4 -1.499251,1.8e-4 -0.49116,2e-5 -0.99481,-2.4e-4 -1.42418,2.7e-4 z"
             id="path837-7"
             sodipodi:nodetypes="cccccccccccccccccc" />
        </g>
        <path
           id="path852-5"
           style="fill:#000003;fill-opacity:1;stroke:none;stroke-width:0.913754;stroke-miterlimit:4;stroke-dasharray:none;stroke-opacity:1"
           d="m 39.159225,39.159215 20.10655,20.10655 a 14.217463,14.217463 0 0 0 -3.65e-4,-20.106552 14.217463,14.217463 0 0 0 -20.106185,2e-6 z" />
        <path
           id="path852-5-0"
           style="fill:#ffffff;fill-opacity:1;stroke:none;stroke-width:0.913754;stroke-miterlimit:4;stroke-dasharray:none;stroke-opacity:1"
           d="m 39.159225,39.159215 20.10655,20.10655 a 14.217463,14.217463 0 0 1 -20.106552,-3.65e-4 14.217463,14.217463 0 0 1 2e-6,-20.106185 z" />
        <path
           id="path852-5-3"
           style="fill:#ffffff;fill-opacity:1;stroke:none;stroke-width:0.913754;stroke-miterlimit:4;stroke-dasharray:none;stroke-opacity:1"
           d="m 96.307439,96.307431 -20.10655,-20.10655 a 14.217463,14.217463 0 0 0 3.65e-4,20.106552 14.217463,14.217463 0 0 0 20.106185,-2e-6 z" />
        <path
           id="path852-5-0-6"
           style="fill:#000000;fill-opacity:1;stroke:none;stroke-width:0.913754;stroke-miterlimit:4;stroke-dasharray:none;stroke-opacity:1"
           d="m 96.307439,96.307431 -20.10655,-20.10655 a 14.217463,14.217463 0 0 1 20.106552,3.65e-4 14.217463,14.217463 0 0 1 -2e-6,20.106185 z" />
      </g>
    </g>
  </g>
</svg>
